{
  "liquidID": "mainView",
  "margin": 5,
  "marginUnits": "pts",
  "vars": [
    {
      "portraitAvailableTextHeight": "0.5 - 0.1875 * aspectRatio",
      "landscapeAvailableTextWidth": "1 - 0.09375 * aspectRatio",
      "buttonPortraitY": "1 - 0.1875 * aspectRatio",
      "buttonPortraitH": "0.125 * aspectRatio",
      "buttonLandscapeX": "1 - 0.09375 * aspectRatio",
      "buttonLandscapeW": "0.0625 * aspectRatio"
    }
  ],
  "children": [
    {
      "liquidID": "profilePicture",
      "portraitFrame": {"x": 0, "y": 0.2, "w": 1, "h": 0.3},
      "landscapeFrame": {"x": 0, "y": 0, "w": 0.6, "h": 0.5},
      "padding": 5,
      "paddingUnits": "pts"
    },
    {
      "liquidID": "profileTitleContainer",
      "portraitFrame": {"x": 0, "y": 0, "w": 1, "h": 0.2},
      "landscapeFrame": {"x": 0.6, "y": 0, "w": 0.4, "h": 0.5},
      "margin": 10,
      "marginUnits": "pts",
      "padding": 5,
      "paddingUnits": "pts",
      "children": [
        {
          "liquidID": "profileTitleLabel",
          "frame": {"x": 0, "y": 0, "w": 1, "h": 1}
        }
      ]
    },
    {
      "liquidID": "infoTextView",
      "portraitFrame": {"x": 0, "y": 0.5, "w": 1, "h": "portraitAvailableTextHeight"},
      "landscapeFrame": {"x": 0, "y": 0.5, "w": "landscapeAvailableTextWidth", "h": 0.5},
      "landscapePadding": {"top": 10, "left": 5, "bottom": 5, "right": 20},
      "portraitPadding": {"top": 10, "left": 5, "bottom": 20, "right": 5},
      "paddingUnits": "pts"
    },
    {
      "liquidID": "pinterestButton",
      "portraitFrame": {"x": 0.0625, "y": "buttonPortraitY", "w": 0.125, "h": "buttonPortraitH"},
      "landscapeFrame": {"x": "buttonLandscapeX", "y": "0.5 + 0.03125", "w": "buttonLandscapeW", "h": 0.0625}
    },
    {
      "liquidID": "facebookButton",
      "portraitFrame": {"x": 0.3125, "y": "buttonPortraitY", "w": 0.125, "h": "buttonPortraitH"},
      "landscapeFrame": {"x": "buttonLandscapeX", "y": "0.5 + 0.15625", "w": "buttonLandscapeW", "h": 0.0625}
    },
    {
      "liquidID": "twitterButton",
      "portraitFrame": {"x": 0.5625, "y": "buttonPortraitY", "w": 0.125, "h": "buttonPortraitH"},
      "landscapeFrame": {"x": "buttonLandscapeX", "y": "0.5 + 0.28125", "w": "buttonLandscapeW", "h": 0.0625}
    },
    {
      "liquidID": "googleButton",
      "portraitFrame": {"x": 0.8125, "y": "buttonPortraitY", "w": 0.125, "h": "buttonPortraitH"},
      "landscapeFrame": {"x": "buttonLandscapeX", "y": "0.5 + 0.40625", "w": "buttonLandscapeW", "h": 0.0625}
    }
  ]
}